-- Merging decision tree log ---
manifest
ADDED from C:\softwareproto\android\app\src\main\AndroidManifest.xml:2:1-12:12
INJECTED from C:\softwareproto\android\app\src\main\AndroidManifest.xml:2:1-12:12
INJECTED from C:\softwareproto\android\app\src\main\AndroidManifest.xml:2:1-12:12
INJECTED from C:\softwareproto\android\app\src\main\AndroidManifest.xml:2:1-12:12
MERGED from [com.android.support:design:25.3.1] C:\Users\MSI\.gradle\caches\transforms-1\files-1.1\design-25.3.1.aar\76ac0c8d1b496fa03642376508454933\AndroidManifest.xml:17:1-31:12
MERGED from [com.android.support:appcompat-v7:25.3.1] C:\Users\MSI\.gradle\caches\transforms-1\files-1.1\appcompat-v7-25.3.1.aar\21e7f9f8730f9168ae2560a2c6f2528d\AndroidManifest.xml:17:1-31:12
MERGED from [com.google.android.support:wearable:2.0.5] C:\Users\MSI\.gradle\caches\transforms-1\files-1.1\wearable-2.0.5.aar\1832e1f74a871593b95b259bd5a92fc9\AndroidManifest.xml:2:1-10:12
MERGED from [com.android.support:animated-vector-drawable:25.3.1] C:\Users\MSI\.gradle\caches\transforms-1\files-1.1\animated-vector-drawable-25.3.1.aar\14b21ea6fde32a238b91d06226b039dc\AndroidManifest.xml:17:1-28:12
MERGED from [com.android.support:support-vector-drawable:25.3.1] C:\Users\MSI\.gradle\caches\transforms-1\files-1.1\support-vector-drawable-25.3.1.aar\c00de2cdc0efdce5b0db85c415dad9c4\AndroidManifest.xml:17:1-28:12
MERGED from [com.android.support:transition:25.3.1] C:\Users\MSI\.gradle\caches\transforms-1\files-1.1\transition-25.3.1.aar\9a3b17901076d786d83f3257b10d3a74\AndroidManifest.xml:17:1-28:12
MERGED from [com.android.support:support-v4:26.0.0] C:\Users\MSI\.gradle\caches\transforms-1\files-1.1\support-v4-26.0.0.aar\7e88e6ce690eb4ae69be412c741d1acb\AndroidManifest.xml:17:1-31:12
MERGED from [com.android.support:support-media-compat:26.0.0] C:\Users\MSI\.gradle\caches\transforms-1\files-1.1\support-media-compat-26.0.0.aar\92b382ab125484fb407e3ffd5be1a7bb\AndroidManifest.xml:17:1-31:12
MERGED from [com.android.support:support-fragment:26.0.0] C:\Users\MSI\.gradle\caches\transforms-1\files-1.1\support-fragment-26.0.0.aar\1685412de2187541621caa8a82251f44\AndroidManifest.xml:17:1-31:12
MERGED from [com.android.support:support-core-utils:26.0.0] C:\Users\MSI\.gradle\caches\transforms-1\files-1.1\support-core-utils-26.0.0.aar\d7ff623c8211a4da5b024c2a03563fb2\AndroidManifest.xml:17:1-31:12
MERGED from [com.android.support:recyclerview-v7:26.0.0] C:\Users\MSI\.gradle\caches\transforms-1\files-1.1\recyclerview-v7-26.0.0.aar\361481d65b21688fd749d70d78829dfc\AndroidManifest.xml:17:1-28:12
MERGED from [com.android.support:support-core-ui:26.0.0] C:\Users\MSI\.gradle\caches\transforms-1\files-1.1\support-core-ui-26.0.0.aar\fb986ad5099074beed95dd338e189fb7\AndroidManifest.xml:17:1-31:12
MERGED from [com.android.support:percent:26.0.0] C:\Users\MSI\.gradle\caches\transforms-1\files-1.1\percent-26.0.0.aar\cc3d0aa57bbefca9c94f52080a9aecff\AndroidManifest.xml:17:1-28:12
MERGED from [com.android.support:support-compat:26.0.0] C:\Users\MSI\.gradle\caches\transforms-1\files-1.1\support-compat-26.0.0.aar\c6bd007aedd8ecf790df5f7c6b8e3251\AndroidManifest.xml:17:1-31:12
INJECTED from C:\softwareproto\android\app\src\main\AndroidManifest.xml:2:1-12:12
INJECTED from C:\softwareproto\android\app\src\main\AndroidManifest.xml:2:1-12:12
INJECTED from C:\softwareproto\android\app\src\main\AndroidManifest.xml:2:1-12:12
	package
		ADDED from C:\softwareproto\android\app\src\main\AndroidManifest.xml:2:120-154
		INJECTED from C:\softwareproto\android\app\src\main\AndroidManifest.xml
		INJECTED from C:\softwareproto\android\app\src\main\AndroidManifest.xml
	android:versionName
		ADDED from C:\softwareproto\android\app\src\main\AndroidManifest.xml:2:94-119
		INJECTED from C:\softwareproto\android\app\src\main\AndroidManifest.xml
		INJECTED from C:\softwareproto\android\app\src\main\AndroidManifest.xml
	xmlns:android
		ADDED from C:\softwareproto\android\app\src\main\AndroidManifest.xml:2:11-69
	android:versionCode
		ADDED from C:\softwareproto\android\app\src\main\AndroidManifest.xml:2:70-93
		INJECTED from C:\softwareproto\android\app\src\main\AndroidManifest.xml
		INJECTED from C:\softwareproto\android\app\src\main\AndroidManifest.xml
uses-sdk
ADDED from C:\softwareproto\android\app\src\main\AndroidManifest.xml:3:5-73
INJECTED from C:\softwareproto\android\app\src\main\AndroidManifest.xml:3:5-73
INJECTED from C:\softwareproto\android\app\src\main\AndroidManifest.xml:3:5-73
MERGED from [com.android.support:design:25.3.1] C:\Users\MSI\.gradle\caches\transforms-1\files-1.1\design-25.3.1.aar\76ac0c8d1b496fa03642376508454933\AndroidManifest.xml:21:5-23:62
MERGED from [com.android.support:design:25.3.1] C:\Users\MSI\.gradle\caches\transforms-1\files-1.1\design-25.3.1.aar\76ac0c8d1b496fa03642376508454933\AndroidManifest.xml:21:5-23:62
MERGED from [com.android.support:appcompat-v7:25.3.1] C:\Users\MSI\.gradle\caches\transforms-1\files-1.1\appcompat-v7-25.3.1.aar\21e7f9f8730f9168ae2560a2c6f2528d\AndroidManifest.xml:21:5-23:78
MERGED from [com.android.support:appcompat-v7:25.3.1] C:\Users\MSI\.gradle\caches\transforms-1\files-1.1\appcompat-v7-25.3.1.aar\21e7f9f8730f9168ae2560a2c6f2528d\AndroidManifest.xml:21:5-23:78
MERGED from [com.google.android.support:wearable:2.0.5] C:\Users\MSI\.gradle\caches\transforms-1\files-1.1\wearable-2.0.5.aar\1832e1f74a871593b95b259bd5a92fc9\AndroidManifest.xml:4:3-70
MERGED from [com.google.android.support:wearable:2.0.5] C:\Users\MSI\.gradle\caches\transforms-1\files-1.1\wearable-2.0.5.aar\1832e1f74a871593b95b259bd5a92fc9\AndroidManifest.xml:4:3-70
MERGED from [com.android.support:animated-vector-drawable:25.3.1] C:\Users\MSI\.gradle\caches\transforms-1\files-1.1\animated-vector-drawable-25.3.1.aar\14b21ea6fde32a238b91d06226b039dc\AndroidManifest.xml:20:5-44
MERGED from [com.android.support:animated-vector-drawable:25.3.1] C:\Users\MSI\.gradle\caches\transforms-1\files-1.1\animated-vector-drawable-25.3.1.aar\14b21ea6fde32a238b91d06226b039dc\AndroidManifest.xml:20:5-44
MERGED from [com.android.support:support-vector-drawable:25.3.1] C:\Users\MSI\.gradle\caches\transforms-1\files-1.1\support-vector-drawable-25.3.1.aar\c00de2cdc0efdce5b0db85c415dad9c4\AndroidManifest.xml:20:5-43
MERGED from [com.android.support:support-vector-drawable:25.3.1] C:\Users\MSI\.gradle\caches\transforms-1\files-1.1\support-vector-drawable-25.3.1.aar\c00de2cdc0efdce5b0db85c415dad9c4\AndroidManifest.xml:20:5-43
MERGED from [com.android.support:transition:25.3.1] C:\Users\MSI\.gradle\caches\transforms-1\files-1.1\transition-25.3.1.aar\9a3b17901076d786d83f3257b10d3a74\AndroidManifest.xml:20:5-44
MERGED from [com.android.support:transition:25.3.1] C:\Users\MSI\.gradle\caches\transforms-1\files-1.1\transition-25.3.1.aar\9a3b17901076d786d83f3257b10d3a74\AndroidManifest.xml:20:5-44
MERGED from [com.android.support:support-v4:26.0.0] C:\Users\MSI\.gradle\caches\transforms-1\files-1.1\support-v4-26.0.0.aar\7e88e6ce690eb4ae69be412c741d1acb\AndroidManifest.xml:21:5-23:54
MERGED from [com.android.support:support-v4:26.0.0] C:\Users\MSI\.gradle\caches\transforms-1\files-1.1\support-v4-26.0.0.aar\7e88e6ce690eb4ae69be412c741d1acb\AndroidManifest.xml:21:5-23:54
MERGED from [com.android.support:support-media-compat:26.0.0] C:\Users\MSI\.gradle\caches\transforms-1\files-1.1\support-media-compat-26.0.0.aar\92b382ab125484fb407e3ffd5be1a7bb\AndroidManifest.xml:21:5-23:63
MERGED from [com.android.support:support-media-compat:26.0.0] C:\Users\MSI\.gradle\caches\transforms-1\files-1.1\support-media-compat-26.0.0.aar\92b382ab125484fb407e3ffd5be1a7bb\AndroidManifest.xml:21:5-23:63
MERGED from [com.android.support:support-fragment:26.0.0] C:\Users\MSI\.gradle\caches\transforms-1\files-1.1\support-fragment-26.0.0.aar\1685412de2187541621caa8a82251f44\AndroidManifest.xml:21:5-23:60
MERGED from [com.android.support:support-fragment:26.0.0] C:\Users\MSI\.gradle\caches\transforms-1\files-1.1\support-fragment-26.0.0.aar\1685412de2187541621caa8a82251f44\AndroidManifest.xml:21:5-23:60
MERGED from [com.android.support:support-core-utils:26.0.0] C:\Users\MSI\.gradle\caches\transforms-1\files-1.1\support-core-utils-26.0.0.aar\d7ff623c8211a4da5b024c2a03563fb2\AndroidManifest.xml:21:5-23:61
MERGED from [com.android.support:support-core-utils:26.0.0] C:\Users\MSI\.gradle\caches\transforms-1\files-1.1\support-core-utils-26.0.0.aar\d7ff623c8211a4da5b024c2a03563fb2\AndroidManifest.xml:21:5-23:61
MERGED from [com.android.support:recyclerview-v7:26.0.0] C:\Users\MSI\.gradle\caches\transforms-1\files-1.1\recyclerview-v7-26.0.0.aar\361481d65b21688fd749d70d78829dfc\AndroidManifest.xml:20:5-44
MERGED from [com.android.support:recyclerview-v7:26.0.0] C:\Users\MSI\.gradle\caches\transforms-1\files-1.1\recyclerview-v7-26.0.0.aar\361481d65b21688fd749d70d78829dfc\AndroidManifest.xml:20:5-44
MERGED from [com.android.support:support-core-ui:26.0.0] C:\Users\MSI\.gradle\caches\transforms-1\files-1.1\support-core-ui-26.0.0.aar\fb986ad5099074beed95dd338e189fb7\AndroidManifest.xml:21:5-23:58
MERGED from [com.android.support:support-core-ui:26.0.0] C:\Users\MSI\.gradle\caches\transforms-1\files-1.1\support-core-ui-26.0.0.aar\fb986ad5099074beed95dd338e189fb7\AndroidManifest.xml:21:5-23:58
MERGED from [com.android.support:percent:26.0.0] C:\Users\MSI\.gradle\caches\transforms-1\files-1.1\percent-26.0.0.aar\cc3d0aa57bbefca9c94f52080a9aecff\AndroidManifest.xml:20:5-44
MERGED from [com.android.support:percent:26.0.0] C:\Users\MSI\.gradle\caches\transforms-1\files-1.1\percent-26.0.0.aar\cc3d0aa57bbefca9c94f52080a9aecff\AndroidManifest.xml:20:5-44
MERGED from [com.android.support:support-compat:26.0.0] C:\Users\MSI\.gradle\caches\transforms-1\files-1.1\support-compat-26.0.0.aar\c6bd007aedd8ecf790df5f7c6b8e3251\AndroidManifest.xml:21:5-23:58
MERGED from [com.android.support:support-compat:26.0.0] C:\Users\MSI\.gradle\caches\transforms-1\files-1.1\support-compat-26.0.0.aar\c6bd007aedd8ecf790df5f7c6b8e3251\AndroidManifest.xml:21:5-23:58
INJECTED from C:\softwareproto\android\app\src\main\AndroidManifest.xml:3:5-73
INJECTED from C:\softwareproto\android\app\src\main\AndroidManifest.xml:3:5-73
	tools:overrideLibrary
		ADDED from [com.android.support:design:25.3.1] C:\Users\MSI\.gradle\caches\transforms-1\files-1.1\design-25.3.1.aar\76ac0c8d1b496fa03642376508454933\AndroidManifest.xml:23:9-59
	android:targetSdkVersion
		ADDED from C:\softwareproto\android\app\src\main\AndroidManifest.xml:3:42-71
		INJECTED from C:\softwareproto\android\app\src\main\AndroidManifest.xml
		INJECTED from C:\softwareproto\android\app\src\main\AndroidManifest.xml
	android:minSdkVersion
		ADDED from C:\softwareproto\android\app\src\main\AndroidManifest.xml:3:15-41
		INJECTED from C:\softwareproto\android\app\src\main\AndroidManifest.xml
		INJECTED from C:\softwareproto\android\app\src\main\AndroidManifest.xml
application
ADDED from C:\softwareproto\android\app\src\main\AndroidManifest.xml:4:5-11:19
MERGED from [com.android.support:design:25.3.1] C:\Users\MSI\.gradle\caches\transforms-1\files-1.1\design-25.3.1.aar\76ac0c8d1b496fa03642376508454933\AndroidManifest.xml:29:5-20
MERGED from [com.android.support:design:25.3.1] C:\Users\MSI\.gradle\caches\transforms-1\files-1.1\design-25.3.1.aar\76ac0c8d1b496fa03642376508454933\AndroidManifest.xml:29:5-20
MERGED from [com.android.support:appcompat-v7:25.3.1] C:\Users\MSI\.gradle\caches\transforms-1\files-1.1\appcompat-v7-25.3.1.aar\21e7f9f8730f9168ae2560a2c6f2528d\AndroidManifest.xml:29:5-20
MERGED from [com.android.support:appcompat-v7:25.3.1] C:\Users\MSI\.gradle\caches\transforms-1\files-1.1\appcompat-v7-25.3.1.aar\21e7f9f8730f9168ae2560a2c6f2528d\AndroidManifest.xml:29:5-20
MERGED from [com.google.android.support:wearable:2.0.5] C:\Users\MSI\.gradle\caches\transforms-1\files-1.1\wearable-2.0.5.aar\1832e1f74a871593b95b259bd5a92fc9\AndroidManifest.xml:6:3-8:17
MERGED from [com.google.android.support:wearable:2.0.5] C:\Users\MSI\.gradle\caches\transforms-1\files-1.1\wearable-2.0.5.aar\1832e1f74a871593b95b259bd5a92fc9\AndroidManifest.xml:6:3-8:17
MERGED from [com.android.support:animated-vector-drawable:25.3.1] C:\Users\MSI\.gradle\caches\transforms-1\files-1.1\animated-vector-drawable-25.3.1.aar\14b21ea6fde32a238b91d06226b039dc\AndroidManifest.xml:26:5-20
MERGED from [com.android.support:animated-vector-drawable:25.3.1] C:\Users\MSI\.gradle\caches\transforms-1\files-1.1\animated-vector-drawable-25.3.1.aar\14b21ea6fde32a238b91d06226b039dc\AndroidManifest.xml:26:5-20
MERGED from [com.android.support:support-vector-drawable:25.3.1] C:\Users\MSI\.gradle\caches\transforms-1\files-1.1\support-vector-drawable-25.3.1.aar\c00de2cdc0efdce5b0db85c415dad9c4\AndroidManifest.xml:26:5-20
MERGED from [com.android.support:support-vector-drawable:25.3.1] C:\Users\MSI\.gradle\caches\transforms-1\files-1.1\support-vector-drawable-25.3.1.aar\c00de2cdc0efdce5b0db85c415dad9c4\AndroidManifest.xml:26:5-20
MERGED from [com.android.support:transition:25.3.1] C:\Users\MSI\.gradle\caches\transforms-1\files-1.1\transition-25.3.1.aar\9a3b17901076d786d83f3257b10d3a74\AndroidManifest.xml:26:5-20
MERGED from [com.android.support:transition:25.3.1] C:\Users\MSI\.gradle\caches\transforms-1\files-1.1\transition-25.3.1.aar\9a3b17901076d786d83f3257b10d3a74\AndroidManifest.xml:26:5-20
MERGED from [com.android.support:support-v4:26.0.0] C:\Users\MSI\.gradle\caches\transforms-1\files-1.1\support-v4-26.0.0.aar\7e88e6ce690eb4ae69be412c741d1acb\AndroidManifest.xml:25:5-29:19
MERGED from [com.android.support:support-v4:26.0.0] C:\Users\MSI\.gradle\caches\transforms-1\files-1.1\support-v4-26.0.0.aar\7e88e6ce690eb4ae69be412c741d1acb\AndroidManifest.xml:25:5-29:19
MERGED from [com.android.support:support-media-compat:26.0.0] C:\Users\MSI\.gradle\caches\transforms-1\files-1.1\support-media-compat-26.0.0.aar\92b382ab125484fb407e3ffd5be1a7bb\AndroidManifest.xml:25:5-29:19
MERGED from [com.android.support:support-media-compat:26.0.0] C:\Users\MSI\.gradle\caches\transforms-1\files-1.1\support-media-compat-26.0.0.aar\92b382ab125484fb407e3ffd5be1a7bb\AndroidManifest.xml:25:5-29:19
MERGED from [com.android.support:support-fragment:26.0.0] C:\Users\MSI\.gradle\caches\transforms-1\files-1.1\support-fragment-26.0.0.aar\1685412de2187541621caa8a82251f44\AndroidManifest.xml:25:5-29:19
MERGED from [com.android.support:support-fragment:26.0.0] C:\Users\MSI\.gradle\caches\transforms-1\files-1.1\support-fragment-26.0.0.aar\1685412de2187541621caa8a82251f44\AndroidManifest.xml:25:5-29:19
MERGED from [com.android.support:support-core-utils:26.0.0] C:\Users\MSI\.gradle\caches\transforms-1\files-1.1\support-core-utils-26.0.0.aar\d7ff623c8211a4da5b024c2a03563fb2\AndroidManifest.xml:25:5-29:19
MERGED from [com.android.support:support-core-utils:26.0.0] C:\Users\MSI\.gradle\caches\transforms-1\files-1.1\support-core-utils-26.0.0.aar\d7ff623c8211a4da5b024c2a03563fb2\AndroidManifest.xml:25:5-29:19
MERGED from [com.android.support:recyclerview-v7:26.0.0] C:\Users\MSI\.gradle\caches\transforms-1\files-1.1\recyclerview-v7-26.0.0.aar\361481d65b21688fd749d70d78829dfc\AndroidManifest.xml:22:5-26:19
MERGED from [com.android.support:recyclerview-v7:26.0.0] C:\Users\MSI\.gradle\caches\transforms-1\files-1.1\recyclerview-v7-26.0.0.aar\361481d65b21688fd749d70d78829dfc\AndroidManifest.xml:22:5-26:19
MERGED from [com.android.support:support-core-ui:26.0.0] C:\Users\MSI\.gradle\caches\transforms-1\files-1.1\support-core-ui-26.0.0.aar\fb986ad5099074beed95dd338e189fb7\AndroidManifest.xml:25:5-29:19
MERGED from [com.android.support:support-core-ui:26.0.0] C:\Users\MSI\.gradle\caches\transforms-1\files-1.1\support-core-ui-26.0.0.aar\fb986ad5099074beed95dd338e189fb7\AndroidManifest.xml:25:5-29:19
MERGED from [com.android.support:percent:26.0.0] C:\Users\MSI\.gradle\caches\transforms-1\files-1.1\percent-26.0.0.aar\cc3d0aa57bbefca9c94f52080a9aecff\AndroidManifest.xml:22:5-26:19
MERGED from [com.android.support:percent:26.0.0] C:\Users\MSI\.gradle\caches\transforms-1\files-1.1\percent-26.0.0.aar\cc3d0aa57bbefca9c94f52080a9aecff\AndroidManifest.xml:22:5-26:19
MERGED from [com.android.support:support-compat:26.0.0] C:\Users\MSI\.gradle\caches\transforms-1\files-1.1\support-compat-26.0.0.aar\c6bd007aedd8ecf790df5f7c6b8e3251\AndroidManifest.xml:25:5-29:19
MERGED from [com.android.support:support-compat:26.0.0] C:\Users\MSI\.gradle\caches\transforms-1\files-1.1\support-compat-26.0.0.aar\c6bd007aedd8ecf790df5f7c6b8e3251\AndroidManifest.xml:25:5-29:19
	android:label
		ADDED from C:\softwareproto\android\app\src\main\AndroidManifest.xml:4:48-72
	android:icon
		ADDED from C:\softwareproto\android\app\src\main\AndroidManifest.xml:4:18-47
activity#processing.test.template.MainActivity
ADDED from C:\softwareproto\android\app\src\main\AndroidManifest.xml:5:9-10:20
	android:theme
		ADDED from C:\softwareproto\android\app\src\main\AndroidManifest.xml:5:48-115
	android:name
		ADDED from C:\softwareproto\android\app\src\main\AndroidManifest.xml:5:19-47
intent-filter#action:name:android.intent.action.MAIN+category:name:android.intent.category.LAUNCHER
ADDED from C:\softwareproto\android\app\src\main\AndroidManifest.xml:6:13-9:29
action#android.intent.action.MAIN
ADDED from C:\softwareproto\android\app\src\main\AndroidManifest.xml:7:17-68
	android:name
		ADDED from C:\softwareproto\android\app\src\main\AndroidManifest.xml:7:25-66
category#android.intent.category.LAUNCHER
ADDED from C:\softwareproto\android\app\src\main\AndroidManifest.xml:8:17-76
	android:name
		ADDED from C:\softwareproto\android\app\src\main\AndroidManifest.xml:8:27-74
meta-data#android.support.VERSION
ADDED from [com.android.support:design:25.3.1] C:\Users\MSI\.gradle\caches\transforms-1\files-1.1\design-25.3.1.aar\76ac0c8d1b496fa03642376508454933\AndroidManifest.xml:25:5-27:34
MERGED from [com.android.support:appcompat-v7:25.3.1] C:\Users\MSI\.gradle\caches\transforms-1\files-1.1\appcompat-v7-25.3.1.aar\21e7f9f8730f9168ae2560a2c6f2528d\AndroidManifest.xml:25:5-27:34
MERGED from [com.android.support:appcompat-v7:25.3.1] C:\Users\MSI\.gradle\caches\transforms-1\files-1.1\appcompat-v7-25.3.1.aar\21e7f9f8730f9168ae2560a2c6f2528d\AndroidManifest.xml:25:5-27:34
MERGED from [com.android.support:animated-vector-drawable:25.3.1] C:\Users\MSI\.gradle\caches\transforms-1\files-1.1\animated-vector-drawable-25.3.1.aar\14b21ea6fde32a238b91d06226b039dc\AndroidManifest.xml:22:5-24:34
MERGED from [com.android.support:animated-vector-drawable:25.3.1] C:\Users\MSI\.gradle\caches\transforms-1\files-1.1\animated-vector-drawable-25.3.1.aar\14b21ea6fde32a238b91d06226b039dc\AndroidManifest.xml:22:5-24:34
MERGED from [com.android.support:support-vector-drawable:25.3.1] C:\Users\MSI\.gradle\caches\transforms-1\files-1.1\support-vector-drawable-25.3.1.aar\c00de2cdc0efdce5b0db85c415dad9c4\AndroidManifest.xml:22:5-24:34
MERGED from [com.android.support:support-vector-drawable:25.3.1] C:\Users\MSI\.gradle\caches\transforms-1\files-1.1\support-vector-drawable-25.3.1.aar\c00de2cdc0efdce5b0db85c415dad9c4\AndroidManifest.xml:22:5-24:34
MERGED from [com.android.support:transition:25.3.1] C:\Users\MSI\.gradle\caches\transforms-1\files-1.1\transition-25.3.1.aar\9a3b17901076d786d83f3257b10d3a74\AndroidManifest.xml:22:5-24:34
MERGED from [com.android.support:transition:25.3.1] C:\Users\MSI\.gradle\caches\transforms-1\files-1.1\transition-25.3.1.aar\9a3b17901076d786d83f3257b10d3a74\AndroidManifest.xml:22:5-24:34
MERGED from [com.android.support:support-media-compat:26.0.0] C:\Users\MSI\.gradle\caches\transforms-1\files-1.1\support-media-compat-26.0.0.aar\92b382ab125484fb407e3ffd5be1a7bb\AndroidManifest.xml:26:9-28:38
MERGED from [com.android.support:support-media-compat:26.0.0] C:\Users\MSI\.gradle\caches\transforms-1\files-1.1\support-media-compat-26.0.0.aar\92b382ab125484fb407e3ffd5be1a7bb\AndroidManifest.xml:26:9-28:38
MERGED from [com.android.support:support-fragment:26.0.0] C:\Users\MSI\.gradle\caches\transforms-1\files-1.1\support-fragment-26.0.0.aar\1685412de2187541621caa8a82251f44\AndroidManifest.xml:26:9-28:38
MERGED from [com.android.support:support-fragment:26.0.0] C:\Users\MSI\.gradle\caches\transforms-1\files-1.1\support-fragment-26.0.0.aar\1685412de2187541621caa8a82251f44\AndroidManifest.xml:26:9-28:38
MERGED from [com.android.support:support-core-utils:26.0.0] C:\Users\MSI\.gradle\caches\transforms-1\files-1.1\support-core-utils-26.0.0.aar\d7ff623c8211a4da5b024c2a03563fb2\AndroidManifest.xml:26:9-28:38
MERGED from [com.android.support:support-core-utils:26.0.0] C:\Users\MSI\.gradle\caches\transforms-1\files-1.1\support-core-utils-26.0.0.aar\d7ff623c8211a4da5b024c2a03563fb2\AndroidManifest.xml:26:9-28:38
MERGED from [com.android.support:recyclerview-v7:26.0.0] C:\Users\MSI\.gradle\caches\transforms-1\files-1.1\recyclerview-v7-26.0.0.aar\361481d65b21688fd749d70d78829dfc\AndroidManifest.xml:23:9-25:38
MERGED from [com.android.support:recyclerview-v7:26.0.0] C:\Users\MSI\.gradle\caches\transforms-1\files-1.1\recyclerview-v7-26.0.0.aar\361481d65b21688fd749d70d78829dfc\AndroidManifest.xml:23:9-25:38
MERGED from [com.android.support:support-core-ui:26.0.0] C:\Users\MSI\.gradle\caches\transforms-1\files-1.1\support-core-ui-26.0.0.aar\fb986ad5099074beed95dd338e189fb7\AndroidManifest.xml:26:9-28:38
MERGED from [com.android.support:support-core-ui:26.0.0] C:\Users\MSI\.gradle\caches\transforms-1\files-1.1\support-core-ui-26.0.0.aar\fb986ad5099074beed95dd338e189fb7\AndroidManifest.xml:26:9-28:38
MERGED from [com.android.support:percent:26.0.0] C:\Users\MSI\.gradle\caches\transforms-1\files-1.1\percent-26.0.0.aar\cc3d0aa57bbefca9c94f52080a9aecff\AndroidManifest.xml:23:9-25:38
MERGED from [com.android.support:percent:26.0.0] C:\Users\MSI\.gradle\caches\transforms-1\files-1.1\percent-26.0.0.aar\cc3d0aa57bbefca9c94f52080a9aecff\AndroidManifest.xml:23:9-25:38
MERGED from [com.android.support:support-compat:26.0.0] C:\Users\MSI\.gradle\caches\transforms-1\files-1.1\support-compat-26.0.0.aar\c6bd007aedd8ecf790df5f7c6b8e3251\AndroidManifest.xml:26:9-28:38
MERGED from [com.android.support:support-compat:26.0.0] C:\Users\MSI\.gradle\caches\transforms-1\files-1.1\support-compat-26.0.0.aar\c6bd007aedd8ecf790df5f7c6b8e3251\AndroidManifest.xml:26:9-28:38
	android:value
		ADDED from [com.android.support:design:25.3.1] C:\Users\MSI\.gradle\caches\transforms-1\files-1.1\design-25.3.1.aar\76ac0c8d1b496fa03642376508454933\AndroidManifest.xml:27:9-31
	android:name
		ADDED from [com.android.support:design:25.3.1] C:\Users\MSI\.gradle\caches\transforms-1\files-1.1\design-25.3.1.aar\76ac0c8d1b496fa03642376508454933\AndroidManifest.xml:26:9-47
uses-library#com.google.android.wearable
ADDED from [com.google.android.support:wearable:2.0.5] C:\Users\MSI\.gradle\caches\transforms-1\files-1.1\wearable-2.0.5.aar\1832e1f74a871593b95b259bd5a92fc9\AndroidManifest.xml:7:5-88
	android:required
		ADDED from [com.google.android.support:wearable:2.0.5] C:\Users\MSI\.gradle\caches\transforms-1\files-1.1\wearable-2.0.5.aar\1832e1f74a871593b95b259bd5a92fc9\AndroidManifest.xml:7:62-86
	android:name
		ADDED from [com.google.android.support:wearable:2.0.5] C:\Users\MSI\.gradle\caches\transforms-1\files-1.1\wearable-2.0.5.aar\1832e1f74a871593b95b259bd5a92fc9\AndroidManifest.xml:7:19-61
